<svg width="75" height="84" viewBox="0 0 75 84" fill="none" xmlns="http://www.w3.org/2000/svg">
<path d="M20.7654 26.3141C21.185 25.0885 21.7326 23.9111 22.3992 22.8017C23.5812 20.9504 24.9578 19.2324 26.5052 17.6772C28.7242 15.4574 31.2179 13.5931 33.671 11.6711C35.1997 10.4435 36.8717 9.36716 38.3909 8.08425C38.7133 7.81037 39.1289 7.60376 39.5852 7.87043C40.0414 8.1371 40.0175 8.5311 39.9841 8.95394C39.8068 10.9399 39.4786 12.9092 39.0023 14.8448C38.4291 17.2832 37.851 19.7217 37.0652 22.0954C36.5719 23.5922 35.9317 25.036 35.1543 26.4054C33.96 28.4931 32.288 30.1796 30.8118 32.0367C29.8994 33.1851 29.1135 34.4248 28.1533 35.5443C26.8946 36.9846 25.5352 38.3326 24.0855 39.578C23.2782 40.2988 22.3824 40.8922 21.5416 41.5601C20.934 42.0376 20.2956 42.4741 19.6308 42.867C19.0241 43.2274 18.5559 42.7733 18.1212 42.4778C17.6987 42.15 17.3084 41.7824 16.9555 41.3799C15.1044 39.4915 13.3057 37.572 12.2428 35.0782C11.4709 33.2063 10.8673 31.2686 10.4394 29.2883C9.92108 27.0132 9.96169 24.6972 10.062 22.3837C10.1504 20.4449 10.3009 18.5133 10.5397 16.5817C10.9386 13.3793 11.9729 10.393 13.344 7.50285C13.8217 6.4698 14.6219 6.39052 15.3623 7.28423C15.895 7.93289 16.3512 8.64402 16.8552 9.31671C17.6143 10.277 18.2559 11.3256 18.7661 12.4399C19.312 13.7762 19.7404 15.1581 20.0464 16.5697C20.794 19.7722 20.7677 23.0323 20.7654 26.3141Z" fill="#78AF8E"/>
<path d="M43.8852 40.1165C47.2669 40.6238 50.5773 41.5279 53.7491 42.8105C54.4714 43.0979 55.2151 43.3362 55.9421 43.6202C56.0713 43.6879 56.2185 43.7129 56.3628 43.6917C56.5071 43.6705 56.6413 43.6041 56.7464 43.502C57.269 43.0501 57.8288 42.643 58.374 42.2214C58.8448 41.8784 59.4004 41.6737 59.9789 41.63C60.0658 41.6106 60.1557 41.6091 60.2432 41.6254C60.3306 41.6416 60.4139 41.6755 60.4881 41.7248C60.5623 41.7742 60.6259 41.838 60.6751 41.9127C60.7243 41.9873 60.7582 42.0712 60.7747 42.1593C60.8823 42.5687 60.6662 42.8261 60.3107 42.9282C59.5277 43.1252 58.8479 43.6156 58.4098 44.2996C58.2206 44.6004 58.2519 44.7154 58.5509 44.8827C61.2974 46.4295 63.6649 48.4651 65.8099 50.7594C67.0459 52.1112 68.08 53.6376 68.8799 55.2906C69.7334 57.0086 69.6761 58.8818 69.2291 60.7335C69.0183 61.6274 68.6821 62.4868 68.2306 63.2854C67.7872 64.1056 67.159 64.8096 66.3968 65.3406C65.6347 65.8715 64.7598 66.2146 63.8429 66.342C63.1715 66.4559 62.7712 66.7437 62.3879 67.3362C60.5079 70.2311 58.4588 72.9916 55.5836 74.9974C53.8446 76.2228 51.9839 77.2621 50.0319 78.0985C47.4342 79.1924 44.7394 79.3027 41.9896 78.9964C39.6974 78.7322 37.4662 78.0821 35.3889 77.0732C34.4517 76.6241 33.7673 75.8477 33.1923 74.9845C32.1834 73.474 31.6081 71.7765 31.1122 70.0442C29.9308 65.9148 30.2416 61.8331 31.3972 57.7557C32.3027 54.5878 33.6024 51.6153 35.7623 49.1103C36.4067 48.3668 36.638 47.8259 36.1176 46.8974C35.5495 45.8829 35.9866 44.8057 36.4102 43.81C36.9323 42.5842 37.7824 41.584 38.74 40.6865C39.7907 39.7 41.1057 39.8311 42.3873 39.9054C42.8928 39.9412 43.3886 40.0465 43.8852 40.1165Z" fill="#FFB788"/>
</svg>
