<svg width="59" height="59" viewBox="0 0 59 59" fill="none" xmlns="http://www.w3.org/2000/svg">
<path d="M55.448 19.3645C55.5454 21.2377 55.0396 23.0927 54.0049 24.6562C52.1259 27.6897 50.2169 30.727 48.2139 33.689C46.835 35.7852 44.9539 37.5022 42.7423 38.6834C38.4394 40.9416 34.1441 43.1998 29.7735 45.3112C26.35 46.9709 22.6898 47.1704 19.0145 46.2972C16.2787 45.6461 13.5579 44.9198 10.8785 44.0692C6.02697 42.5261 3.73837 38.9318 3.2085 34.0315C3.12581 32.9868 3.12581 31.9372 3.2085 30.8926C3.30245 29.2253 4.19684 28.1338 5.61735 27.2418C11.1829 23.7454 17.3159 21.5738 23.494 19.564C30.8108 17.1854 38.1989 15.0175 45.5833 12.8534C47.3946 12.3265 49.3187 12.1759 51.1864 11.841C52.1748 11.6641 52.9113 12.0743 53.5051 12.812C54.997 14.6825 55.5269 16.8541 55.448 19.3645Z" fill="currentColor"/>
</svg>
