<svg width="auto" height="auto" viewBox="0 0 226 120" fill="none" xmlns="http://www.w3.org/2000/svg">
<path d="M111.23 42.6188C111.825 37.0092 111.835 31.3477 112.637 25.7694C113.155 22.0279 115.602 19.8788 119.126 19.2804C121.118 18.9422 122.841 19.7071 124.337 20.8988C128.01 23.7126 130.795 27.5347 132.357 31.9045C134.168 37.0352 136.352 42.0464 138.592 46.995C139.943 50.1377 142.15 52.8326 144.957 54.7693C146.872 56.0546 148.579 55.9141 150.411 54.6548C152.869 52.948 154.033 50.4398 154.918 47.6923C156.931 41.4844 158.861 35.2452 161.169 29.1465C162.162 26.5135 163.963 24.1718 165.479 21.7521C165.924 21.1442 166.483 20.6298 167.125 20.2379C167.53 19.9014 168.049 19.737 168.573 19.7798C169.097 19.8225 169.583 20.069 169.929 20.4668C170.544 21.0494 171.091 21.7006 171.559 22.4078C174.302 26.8986 176.258 31.6703 176.894 36.978C177.411 41.3595 178.167 45.7201 178.777 50.0912C178.858 50.9855 178.889 51.8837 178.871 52.7815C178.959 55.6175 179.026 58.4482 179.135 61.2842C179.197 62.965 180.025 63.7403 181.587 63.22C183.01 62.8053 184.32 62.0684 185.416 61.0657C189.039 57.3451 192.495 53.4944 195.921 49.6177C200.751 44.2531 206.423 39.7213 212.712 36.2027C214.091 35.4056 215.625 34.9174 217.208 34.7717C220.613 34.5271 222.543 37.3735 221.866 41.1409C220.66 48.0826 218.285 54.6132 215.584 61.0917C212.008 69.6465 207.791 77.8162 202.342 85.2886C196.955 92.6778 190.27 98.5319 181.706 102.055C177.727 103.689 174.007 106.004 169.955 107.383C158.1 111.406 147.027 110.214 137.232 101.659C132.122 97.1211 127.939 91.6263 124.916 85.4812C120.471 76.7494 117.154 67.5546 113.926 58.339C112.202 53.3279 110.661 48.1242 111.23 42.6188Z" fill="#78AF8E"/>
<path d="M82.318 54.3467C85.812 57.6174 89.2673 62.1813 92.6387 66.8687C95.3319 70.6147 98.4555 74.0414 100.619 78.1745C102.702 82.1407 104.731 86.1389 106.671 90.185C107.126 91.008 107.631 91.8027 108.182 92.5649C109.359 94.4283 108.391 96.7144 106.191 96.7154C101.416 96.7262 96.6079 97.501 91.7832 96.7759C85.3834 95.7996 79.0637 94.5924 73.1213 91.944C68.749 89.9645 64.2051 88.2519 60.3878 85.3998C51.8636 79.0449 43.3912 72.5984 36.8536 63.9871C34.517 60.9087 32.5628 57.6385 30.4772 54.4204C28.3916 51.2022 26.2344 47.9922 24.101 44.798C21.1468 40.3603 18.0092 36.0583 14.9314 31.7363C13.8367 30.2029 12.762 28.6496 11.5915 27.1761C11.3202 26.8896 11.146 26.5247 11.0933 26.133C11.0407 25.7413 11.1123 25.3423 11.2981 24.9924C11.4385 24.5568 11.7345 24.1876 12.1292 23.9554C12.524 23.7233 12.9898 23.6445 13.4376 23.7342C15.7802 24.1307 18.1149 24.5432 20.4334 25.0592C24.5336 25.969 28.658 26.7117 32.7943 27.4503C36.5329 28.1262 40.1587 29.4311 43.869 30.302C49.0109 31.5119 53.9969 33.0921 58.5946 35.656C63.9474 38.6161 69.0487 41.9548 73.5472 46.1741C76.2154 48.6668 79.0311 51.0279 82.318 54.3467Z" fill="#FFB788"/>
</svg>
