<svg width="95" height="106" viewBox="0 0 95 106" fill="none" xmlns="http://www.w3.org/2000/svg">
<path d="M3.36548 33.7327C3.25872 30.528 4.8335 28.0362 6.70188 25.6319C13.4247 17.0773 22.7633 12.8292 33.2296 10.5221C35.7294 9.95759 38.2868 9.66845 40.8533 9.66016C45.9913 9.6796 50.2586 11.6886 53.5316 15.6386C55.2332 17.7027 56.9748 19.7279 58.1058 22.1744C58.9691 23.9209 59.4874 25.8092 59.6339 27.7413C59.7173 29.2967 58.9866 30.5604 57.939 31.6978C55.4901 34.3549 52.5273 36.3769 49.4412 38.2563C48.9541 38.5544 48.4636 38.8428 47.9865 39.1539C46.682 40.0125 46.1982 41.218 46.3417 42.7182C46.5652 45.0545 46.8721 47.3908 46.9055 49.7336C46.9322 51.5514 46.2149 53.2526 44.5066 54.2085C43.6859 54.6687 42.6282 54.795 41.6573 54.9214C37.687 55.4366 35.0279 53.9299 34.1004 50.5437C33.9403 49.9507 33.8468 49.3383 33.6733 48.7485C33.3397 47.6176 32.7258 47.1899 31.5447 47.4524C30.346 47.7198 29.172 48.0829 28.0348 48.5379C25.5359 49.5554 23.1103 50.7608 20.5846 51.7167C14.5558 53.985 10.4787 51.9468 7.30243 47.258C5.5609 44.681 4.44409 41.7539 4.0361 38.697C3.80922 37.0444 3.58902 35.3886 3.36548 33.7327Z" fill="#FEC401"/>
<path d="M89.9547 56.4068C89.7874 61.8876 88.2979 65.5508 86.4833 69.1515C83.9808 74.1286 80.0708 77.7481 75.4381 80.6574C71.383 83.2007 67.2142 85.5626 63.1148 88.037C59.8423 90.011 56.6486 92.1038 53.3319 94.0121C48.3679 96.8651 43.3344 99.5992 38.3199 102.362C37.9412 102.508 37.5441 102.601 37.1396 102.64C37.1396 102.189 36.9156 101.608 37.1396 101.304C37.9033 100.184 38.6796 99.0236 39.6642 98.1196C41.7187 96.2613 42.9778 93.8776 44.4326 91.6127C47.0109 87.6053 48.5919 83.135 50.5454 78.8336C53.5982 72.1496 57.4098 65.8324 61.9062 60.0043C65.2923 55.5903 69.0698 51.5892 73.5068 48.2138C75.1531 46.9178 77.1491 46.133 79.244 45.9583C81.371 45.7987 83.2013 46.6997 84.8581 47.9197C87.6194 49.9343 90.0904 53.7696 89.9547 56.4068Z" fill="#F06F5D"/>
</svg>
