<svg width="100" height="100" viewBox="0 0 100 100" fill="none" xmlns="http://www.w3.org/2000/svg">
<path d="M54.4997 85.0101C54.1053 83.8996 53.6506 82.8065 53.3302 81.6756C52.817 79.8514 52.5563 77.9733 52.2867 76.1038C52.05 74.3809 51.7831 72.6578 51.6299 70.9256C51.4767 69.1933 51.2384 67.4485 51.0213 65.7125C50.8416 64.2862 50.5506 62.8806 50.3246 61.4633C50.118 60.1781 49.8161 58.922 49.5201 57.6561C49.1882 56.2423 48.8138 54.8161 48.0678 53.5552C46.7185 51.2648 44.8289 49.5067 42.5854 48.0843C38.9953 45.8106 35.1199 44.0942 31.2955 42.277C29.36 41.3604 27.4641 40.3701 25.7545 39.0555C24.2672 37.9171 23.0177 36.5308 21.8021 35.118C20.8128 33.9698 20.1022 32.6493 19.3748 31.3183C18.9504 30.4763 18.5982 29.5999 18.322 28.6984C17.9862 27.781 17.726 26.8377 17.5438 25.878C17.4058 25.1692 17.2186 24.4708 16.9837 23.788C16.667 22.6986 16.4158 21.5912 16.2314 20.4718C15.8203 18.3556 15.464 16.2268 15.1882 14.0873C14.8678 11.6087 14.4043 9.14639 14.2325 6.6466C14.1788 5.87857 13.9473 5.13367 13.9055 4.35822C13.8613 3.64377 14.0649 3.20994 14.7236 2.92898C16.769 2.02968 19.03 1.73744 21.2376 2.08699C23.0014 2.36157 23.3995 3.16545 23.7619 4.71415C24.3674 7.30305 24.324 9.98388 24.6125 12.6157C24.9415 15.6434 25.387 18.6507 26.2191 21.5839C26.6071 22.9521 27.3366 24.1972 27.9814 25.4672C28.5748 26.7274 29.287 27.9281 30.1084 29.053C31.3274 30.6319 32.9294 31.7881 34.6484 32.7612C36.804 33.9823 39.0017 35.1235 41.3434 35.953C42.7633 36.4541 44.1769 36.9702 45.612 37.4475C48.066 38.2874 50.4001 39.4447 52.5549 40.8899C54.4979 42.1584 55.8739 43.9978 57.1019 45.9205C58.6212 48.296 59.8103 50.8648 60.8875 53.4772C62.7447 57.9916 63.487 62.7221 63.7208 67.5643C63.8942 71.1486 63.8713 74.7536 64.3949 78.3089C64.8401 81.3763 65.8367 84.2419 68.0032 86.5762C68.9242 87.5793 69.9362 88.4947 71.0262 89.3107C71.5819 89.7123 72.061 90.2106 72.4406 90.7817C73.0895 91.7825 72.5948 92.6986 72.1105 93.543C71.3235 94.9583 70.3572 96.266 69.2357 97.4336C68.7258 97.9176 68.1304 98.3024 67.4798 98.5685C67.1404 98.7207 66.8165 98.5588 66.5457 98.3802C64.8623 97.2749 63.1627 96.1788 61.6563 94.8482C59.9979 93.385 58.6022 91.6739 57.271 89.9011C56.146 88.3934 55.2149 86.7501 54.4997 85.0101Z" fill="currentColor"/>
<path d="M74.0537 40.5389C74.7318 42.3912 75.281 44.2842 75.8238 46.1798C76.6525 48.9733 77.1575 51.8519 77.3287 54.7583C77.4807 57.7857 77.5986 60.8147 78.0308 63.8215C78.4365 66.5777 79.0285 69.2946 80.4227 71.7537C81.0923 72.9373 82.0071 73.9429 82.9743 74.902C83.7326 75.6532 84.6066 76.2896 85.2271 77.1797C85.6919 77.8475 85.6704 78.1252 85.1464 78.7417C84.9123 79.013 84.7141 79.3138 84.5568 79.6366C83.9077 80.9991 82.7422 81.7301 81.4188 82.2695C80.8931 82.4858 80.4096 82.2166 79.9552 82.0002C78.4171 81.2563 77.06 80.1792 75.9821 78.8467C75.1804 77.8766 74.4648 76.8379 73.8436 75.7426C73.304 74.7688 72.8583 73.7457 72.5126 72.6873C72.0919 71.4486 71.9564 70.105 71.8347 68.7832C71.5665 65.9231 71.4301 63.0536 71.2743 60.1846C71.1485 57.8386 70.7116 55.5285 70.2273 53.2353C69.9789 51.9738 69.6582 50.7273 69.2668 49.5022C68.7993 48.096 68.4232 46.6597 67.7771 45.3171C67.0655 43.8395 66.2612 42.4125 65.4941 40.9678C64.8697 39.7979 64.1541 38.7005 63.4285 37.5847C61.7709 35.0497 59.7063 32.9112 57.419 30.9515C54.9566 28.8601 52.0586 27.3546 48.9425 26.5482C48.3067 26.3765 47.6957 26.0975 47.0549 25.9379C46.007 25.6768 45.6014 24.8651 45.4561 23.9538C45.3085 23.0292 45.3035 22.0881 45.4414 21.1637C45.6847 19.505 46.6387 18.9979 48.0694 18.8874C49.0426 18.8108 49.9378 19.1447 50.8153 19.5256C53.424 20.6585 55.9045 22.0557 58.4747 23.2691C61.1471 24.5326 63.3516 26.4592 65.5294 28.4167C67.5263 30.1684 69.2867 32.1759 70.7651 34.3872C71.597 35.7003 72.3593 37.0564 73.0487 38.45C73.4249 39.1256 73.7605 39.8232 74.0537 40.5389Z" fill="currentColor"/>
</svg>
