<svg width="24" height="24" viewBox="0 0 24 24" fill="none" xmlns="http://www.w3.org/2000/svg">
<path d="M8.82318 21.7491C9.13483 21.7353 9.44334 21.6839 9.74123 21.596L10.5281 21.2994C10.7985 21.1821 11.0785 21.0861 11.3655 21.0124C11.7147 20.927 12.0742 20.8852 12.4349 20.8881C12.7988 20.8852 13.1617 20.927 13.5143 21.0124C13.7961 21.0954 14.0724 21.1944 14.3416 21.309C14.6846 21.4525 14.957 21.5386 15.1386 21.596C15.4463 21.6817 15.7664 21.7204 16.0869 21.7108C16.5638 21.7092 17.0299 21.5763 17.4287 21.3281C17.8376 21.0595 18.2044 20.7375 18.5182 20.3715C18.7604 20.1036 19.0731 19.6922 19.4766 19.1469C19.9216 18.5039 20.3064 17.8253 20.6267 17.1188C20.7478 16.8509 20.8789 16.5256 21 16.1621C20.7253 16.0576 20.4646 15.9227 20.2232 15.7603C19.5472 15.3489 18.9914 14.7827 18.607 14.1139C18.2226 13.4451 18.0221 12.6952 18.0239 11.9336C18.0212 11.1628 18.2298 10.4045 18.6292 9.7332C19.0536 8.99797 19.6594 8.37105 20.3947 7.90595C19.8454 7.12801 19.0562 6.52994 18.1349 6.19349C17.5666 5.98541 16.9675 5.86275 16.3593 5.82996C16.0226 5.80398 15.6839 5.81683 15.3504 5.86823C15.0077 5.91653 14.6701 5.99336 14.3416 6.09783L13.4841 6.44223C13.1209 6.58573 12.8687 6.67183 12.7375 6.7101C12.5464 6.77663 12.3457 6.81534 12.1423 6.8249C11.8864 6.82002 11.6335 6.77141 11.3957 6.6814L10.508 6.35613C10.1246 6.21263 9.80177 6.10739 9.49911 6.03086C9.16905 5.95246 8.83049 5.91072 8.49026 5.90649C7.56106 5.91823 6.65334 6.17316 5.86725 6.64313C5.05461 7.10737 4.38625 7.76757 3.93026 8.55649C3.291 9.64971 2.97062 10.8848 3.00212 12.1345C3.01323 13.4366 3.24485 14.7287 3.68814 15.9612C4.076 17.091 4.62957 18.1634 5.33256 19.1469C5.64125 19.5901 5.97815 20.015 6.34141 20.4193C6.66323 20.809 7.04797 21.148 7.48141 21.4238C7.8879 21.6488 8.35268 21.7615 8.82318 21.7491ZM15.2395 4.09837C15.6405 3.63977 15.9546 3.11861 16.1676 2.55812C16.3732 1.97657 16.4387 1.35872 16.3593 0.75C15.7485 0.791414 15.1539 0.954401 14.614 1.22834C14.0548 1.50455 13.5552 1.87772 13.1411 2.32852C12.7448 2.76548 12.4309 3.26385 12.2129 3.8018C11.9667 4.36396 11.8798 4.97737 11.9607 5.58122C12.591 5.62122 13.2204 5.49191 13.7766 5.20812C14.3397 4.93772 14.8377 4.55991 15.2395 4.09837Z" fill="black"/>
</svg>
