<svg width="32" height="32" viewBox="0 0 32 32" fill="currentColor" xmlns="http://www.w3.org/2000/svg">
<g clip-path="url(#clip0_2240_1336)">
<path d="M16 5C9.9251 5 5 9.9251 5 16C5 20.6626 7.89712 24.6461 11.9893 26.2486C11.8897 25.3794 11.8082 24.0395 12.0255 23.0889C12.2247 22.2288 13.3111 17.6206 13.3111 17.6206C13.3111 17.6206 12.9852 16.9597 12.9852 15.9909C12.9852 14.4609 13.8724 13.3202 14.977 13.3202C15.9185 13.3202 16.3712 14.0263 16.3712 14.8683C16.3712 15.8099 15.7737 17.2222 15.4568 18.535C15.1942 19.6305 16.0091 20.5267 17.0864 20.5267C19.042 20.5267 20.5449 18.4626 20.5449 15.493C20.5449 12.8584 18.6527 11.0206 15.9457 11.0206C12.8132 11.0206 10.9753 13.3654 10.9753 15.7918C10.9753 16.7333 11.3374 17.7473 11.7901 18.2996C11.8807 18.4082 11.8897 18.5078 11.8626 18.6165C11.7811 18.9605 11.5909 19.7119 11.5547 19.8658C11.5095 20.065 11.3918 20.1103 11.1835 20.0107C9.80741 19.3679 8.94732 17.3671 8.94732 15.7465C8.94732 12.279 11.4642 9.09218 16.2173 9.09218C20.0288 9.09218 22.9984 11.8082 22.9984 15.4477C22.9984 19.2412 20.6082 22.2922 17.2947 22.2922C16.1811 22.2922 15.1309 21.7128 14.7778 21.0247C14.7778 21.0247 14.2255 23.1251 14.0897 23.6412C13.8453 24.6008 13.1753 25.7959 12.7226 26.5292C13.7547 26.8461 14.8412 27.0181 15.9819 27.0181C22.0568 27.0181 26.9819 22.093 26.9819 16.0181C27 9.9251 22.0749 5 16 5Z" fill="currentColor"/>
</g>
<defs>
<clipPath id="clip0_2240_1336">
<rect width="22" height="22" fill="currentColor" transform="translate(5 5)"/>
</clipPath>
</defs>
</svg>
