<svg width="24" height="24" viewBox="0 0 24 24" fill="none" xmlns="http://www.w3.org/2000/svg">
<path d="M19.7119 3.36355L2.24367 8.29049C2.09671 8.33194 1.96591 8.41725 1.86874 8.53503C1.77157 8.65281 1.71266 8.79744 1.69989 8.9496C1.68712 9.10175 1.7211 9.25418 1.79728 9.38651C1.87346 9.51884 1.98821 9.62476 2.1262 9.69013L10.1522 13.4919C10.3088 13.5661 10.4348 13.6921 10.509 13.8487L14.3107 21.8747C14.3761 22.0127 14.482 22.1274 14.6144 22.2036C14.7467 22.2798 14.8991 22.3138 15.0513 22.301C15.2034 22.2882 15.3481 22.2293 15.4658 22.1321C15.5836 22.035 15.6689 21.9042 15.7104 21.7572L20.6373 4.28898C20.6735 4.16067 20.6749 4.02503 20.6412 3.89603C20.6075 3.76703 20.5401 3.64933 20.4458 3.55506C20.3515 3.46079 20.2339 3.39335 20.1048 3.35969C19.9758 3.32603 19.8402 3.32736 19.7119 3.36355Z" stroke="currentColor" stroke-width="2" stroke-linecap="round" stroke-linejoin="round"/>
<path d="M10.3926 13.6066L14.6352 9.36395" stroke="currentColor" stroke-width="2" stroke-linecap="round" stroke-linejoin="round"/>
</svg>
