<svg width="24" height="24" viewBox="0 0 24 24" fill="none" xmlns="http://www.w3.org/2000/svg">
<path fill-rule="evenodd" clip-rule="evenodd" d="M19.9726 4.01968C18.9346 2.98003 17.6997 2.15569 16.3393 1.59444C14.9789 1.03319 13.5202 0.746178 12.0475 0.750038C5.8699 0.750038 0.846693 5.75127 0.844007 11.8987C0.841522 13.8552 1.35736 15.7777 2.33953 17.4725L0.75 23.25L6.6891 21.6996C8.33155 22.5898 10.1719 23.0563 12.0421 23.0565H12.047C18.2214 23.0565 23.2478 18.0547 23.2499 11.9073C23.2546 10.4422 22.9673 8.99078 22.4048 7.63691C21.8422 6.28304 21.0156 5.0536 19.9726 4.01968ZM12.0475 21.1736H12.0421C10.3745 21.1738 8.73746 20.7277 7.30257 19.882L6.96253 19.681L3.43807 20.601L4.37921 17.1795L4.15736 16.8288C3.2262 15.3524 2.73328 13.644 2.73543 11.9008C2.73543 6.79162 6.91472 2.63452 12.0513 2.63452C14.521 2.63594 16.889 3.61358 18.6345 5.3524C20.38 7.09123 21.3601 9.44885 21.3591 11.9067C21.3569 17.0165 17.1798 21.1736 12.0475 21.1736ZM17.1551 14.2333C16.8752 14.0938 15.4989 13.4197 15.2421 13.3245C14.9854 13.2293 14.799 13.1855 14.6126 13.464C14.4262 13.7426 13.8895 14.3729 13.7262 14.5562C13.5629 14.7396 13.3996 14.7658 13.1197 14.6263C12.8399 14.4867 11.9379 14.1927 10.8684 13.2432C10.0363 12.5049 9.4744 11.5924 9.31056 11.3133C9.14672 11.0342 9.29337 10.8856 9.43358 10.745C9.55928 10.6199 9.71345 10.4194 9.85312 10.2569C9.99278 10.0944 10.0401 9.97787 10.133 9.79236C10.2259 9.60685 10.1797 9.44379 10.1099 9.30426C10.0401 9.16473 9.48031 7.79347 9.24664 7.23534C9.01941 6.69218 8.78895 6.76595 8.61706 6.7574C8.4559 6.74938 8.26681 6.74724 8.07987 6.74724C7.93795 6.75107 7.79837 6.78405 7.66987 6.84413C7.54137 6.9042 7.42675 6.99007 7.33319 7.09634C7.07695 7.37487 6.3539 8.04901 6.3539 9.42027C6.3539 10.7915 7.35682 12.1163 7.49649 12.3023C7.63616 12.4884 9.47064 15.302 12.2774 16.5086C12.7986 16.7325 13.3314 16.9288 13.8734 17.0967C14.5443 17.3105 15.1546 17.2784 15.6364 17.2068C16.1736 17.1271 17.2931 16.5332 17.5263 15.8826C17.7594 15.232 17.7594 14.6738 17.6874 14.5573C17.6154 14.4408 17.4349 14.3729 17.1551 14.2333Z" fill="currentColor"/>
</svg>
