<svg width="515" height="361" viewBox="0 0 515 361" fill="none" xmlns="http://www.w3.org/2000/svg">
<path d="M514.883 78.1538C515.843 97.4171 510.863 116.494 500.677 132.572C482.179 163.768 463.386 195.003 443.667 225.463C430.093 247.02 411.574 264.678 389.802 276.824C347.442 300.047 305.156 323.27 262.131 344.983C228.428 362.052 192.395 364.103 156.213 355.124C129.28 348.428 102.496 340.958 76.1181 332.21C28.3571 316.342 5.82684 279.379 0.610495 228.986C-0.203498 218.242 -0.203498 207.449 0.610495 196.706C1.53538 179.56 10.3403 168.335 24.3246 159.162C79.1147 123.206 139.491 100.873 200.312 80.2053C272.342 55.744 345.075 33.4501 417.77 11.195C435.602 5.77635 454.544 4.22816 472.931 0.783457C482.66 -1.03566 489.911 3.1832 495.757 10.7693C510.444 30.0055 515.66 52.3379 514.883 78.1538Z" fill="#FEC401"/>
</svg>
